{
  "attributes": {
    "layout": {
      "BITS1": {
        "x": -549.9469146923642,
        "y": -341.74970630452356,
        "visible": true
      },
      "BITS2": {
        "x": 0.0,
        "y": 0.0,
        "visible": false
      },
      "CALC1": {
        "x": 0.0,
        "y": 0.0,
        "visible": false
      },
      "CALC2": {
        "x": 0.0,
        "y": 0.0,
        "visible": false
      },
      "CLOCK1": {
        "x": 0.0,
        "y": 0.0,
        "visible": false
      },
      "CLOCK2": {
        "x": 0.0,
        "y": 0.0,
        "visible": false
      },
      "COUNTER1": {
        "x": -13.14487701374992,
        "y": -184.26083005329178,
        "visible": true
      },
      "COUNTER2": {
        "x": 0.0,
        "y": 0.0,
        "visible": false
      },
      "COUNTER3": {
        "x": 0.0,
        "y": 0.0,
        "visible": false
      },
      "COUNTER4": {
        "x": 0.0,
        "y": 0.0,
        "visible": false
      },
      "COUNTER5": {
        "x": 0.0,
        "y": 0.0,
        "visible": false
      },
      "COUNTER6": {
        "x": 0.0,
        "y": 0.0,
        "visible": false
      },
      "COUNTER7": {
        "x": 0.0,
        "y": 0.0,
        "visible": false
      },
      "COUNTER8": {
        "x": 0.0,
        "y": 0.0,
        "visible": false
      },
      "DIV1": {
        "x": 0.0,
        "y": 0.0,
        "visible": false
      },
      "DIV2": {
        "x": 0.0,
        "y": 0.0,
        "visible": false
      },
      "FILTER1": {
        "x": 0.0,
        "y": 0.0,
        "visible": false
      },
      "FILTER2": {
        "x": 0.0,
        "y": 0.0,
        "visible": false
      },
      "FMC_IN": {
        "x": 0.0,
        "y": 0.0,
        "visible": false
      },
      "FMC_OUT": {
        "x": 0.0,
        "y": 0.0,
        "visible": false
      },
      "INENC1": {
        "x": 0.0,
        "y": 0.0,
        "visible": false
      },
      "INENC2": {
        "x": 0.0,
        "y": 0.0,
        "visible": false
      },
      "INENC3": {
        "x": 0.0,
        "y": 0.0,
        "visible": false
      },
      "INENC4": {
        "x": 0.0,
        "y": 0.0,
        "visible": false
      },
      "LUT1": {
        "x": 0.0,
        "y": 0.0,
        "visible": false
      },
      "LUT2": {
        "x": 0.0,
        "y": 0.0,
        "visible": false
      },
      "LUT3": {
        "x": 0.0,
        "y": 0.0,
        "visible": false
      },
      "LUT4": {
        "x": 0.0,
        "y": 0.0,
        "visible": false
      },
      "LUT5": {
        "x": 0.0,
        "y": 0.0,
        "visible": false
      },
      "LUT6": {
        "x": 0.0,
        "y": 0.0,
        "visible": false
      },
      "LUT7": {
        "x": 0.0,
        "y": 0.0,
        "visible": false
      },
      "LUT8": {
        "x": 0.0,
        "y": 0.0,
        "visible": false
      },
      "LVDSIN1": {
        "x": 0.0,
        "y": 0.0,
        "visible": false
      },
      "LVDSIN2": {
        "x": 0.0,
        "y": 0.0,
        "visible": false
      },
      "LVDSOUT1": {
        "x": 0.0,
        "y": 0.0,
        "visible": false
      },
      "LVDSOUT2": {
        "x": 0.0,
        "y": 0.0,
        "visible": false
      },
      "OUTENC1": {
        "x": 0.0,
        "y": 0.0,
        "visible": false
      },
      "OUTENC2": {
        "x": 0.0,
        "y": 0.0,
        "visible": false
      },
      "OUTENC3": {
        "x": 0.0,
        "y": 0.0,
        "visible": false
      },
      "OUTENC4": {
        "x": 0.0,
        "y": 0.0,
        "visible": false
      },
      "PCAP": {
        "x": 93.73802474882712,
        "y": 116.07444435008182,
        "visible": true
      },
      "PCOMP1": {
        "x": 0.0,
        "y": 0.0,
        "visible": false
      },
      "PCOMP2": {
        "x": 0.0,
        "y": 0.0,
        "visible": false
      },
      "PGEN1": {
        "x": 0.0,
        "y": 0.0,
        "visible": false
      },
      "PGEN2": {
        "x": 0.0,
        "y": 0.0,
        "visible": false
      },
      "PID": {
        "x": 0.0,
        "y": 0.0,
        "visible": false
      },
      "PULSE1": {
        "x": -344.67965300896583,
        "y": -88.2667461328835,
        "visible": true
      },
      "PULSE2": {
        "x": 0.0,
        "y": 0.0,
        "visible": false
      },
      "PULSE3": {
        "x": 0.0,
        "y": 0.0,
        "visible": false
      },
      "PULSE4": {
        "x": 0.0,
        "y": 0.0,
        "visible": false
      },
      "PULSE5": {
        "x": 0.0,
        "y": 0.0,
        "visible": false
      },
      "PULSE6": {
        "x": 0.0,
        "y": 0.0,
        "visible": false
      },
      "PULSE7": {
        "x": 0.0,
        "y": 0.0,
        "visible": false
      },
      "PULSE8": {
        "x": 0.0,
        "y": 0.0,
        "visible": false
      },
      "PULSE9": {
        "x": 0.0,
        "y": 0.0,
        "visible": false
      },
      "PULSE10": {
        "x": 0.0,
        "y": 0.0,
        "visible": false
      },
      "SEQ1": {
        "x": 0.0,
        "y": 0.0,
        "visible": false
      },
      "SEQ2": {
        "x": 0.0,
        "y": 0.0,
        "visible": false
      },
      "SINGEN": {
        "x": 0.0,
        "y": 0.0,
        "visible": false
      },
      "SRGATE1": {
        "x": -47.35185542382089,
        "y": -417.6216468001377,
        "visible": true
      },
      "SRGATE2": {
        "x": 0.0,
        "y": 0.0,
        "visible": false
      },
      "SRGATE3": {
        "x": 0.0,
        "y": 0.0,
        "visible": false
      },
      "SRGATE4": {
        "x": 0.0,
        "y": 0.0,
        "visible": false
      },
      "SYSTEM": {
        "x": 0.0,
        "y": 0.0,
        "visible": false
      },
      "TTLIN1": {
        "x": -608.3150388524614,
        "y": -91.77902691869014,
        "visible": true
      },
      "TTLIN2": {
        "x": 0.0,
        "y": 0.0,
        "visible": false
      },
      "TTLIN3": {
        "x": 0.0,
        "y": 0.0,
        "visible": false
      },
      "TTLIN4": {
        "x": 0.0,
        "y": 0.0,
        "visible": false
      },
      "TTLIN5": {
        "x": 0.0,
        "y": 0.0,
        "visible": false
      },
      "TTLIN6": {
        "x": 0.0,
        "y": 0.0,
        "visible": false
      },
      "TTLOUT1": {
        "x": 0.0,
        "y": 0.0,
        "visible": false
      },
      "TTLOUT2": {
        "x": 86.52282856311308,
        "y": 256.35414163230394,
        "visible": true
      },
      "TTLOUT3": {
        "x": 0.0,
        "y": 0.0,
        "visible": false
      },
      "TTLOUT4": {
        "x": 0.0,
        "y": 0.0,
        "visible": false
      },
      "TTLOUT5": {
        "x": 81.45575026933011,
        "y": -22.200915176331534,
        "visible": true
      },
      "TTLOUT6": {
        "x": 211.77148477001197,
        "y": -566.7951067204067,
        "visible": true
      },
      "TTLOUT7": {
        "x": 0.0,
        "y": 0.0,
        "visible": false
      },
      "TTLOUT8": {
        "x": 0.0,
        "y": 0.0,
        "visible": false
      },
      "TTLOUT9": {
        "x": 0.0,
        "y": 0.0,
        "visible": false
      },
      "TTLOUT10": {
        "x": 0.0,
        "y": 0.0,
        "visible": false
      }
    },
    "exports": {},
    "bits": {
      "typeid": "malcolm:core/Table:1.0",
      "name": [
        "TTLIN1.VAL",
        "TTLIN2.VAL",
        "TTLIN3.VAL",
        "TTLIN4.VAL",
        "TTLIN5.VAL",
        "TTLIN6.VAL",
        "LVDSIN1.VAL",
        "LVDSIN2.VAL",
        "INENC1.A",
        "INENC2.A",
        "INENC3.A",
        "INENC4.A",
        "INENC1.B",
        "INENC2.B",
        "INENC3.B",
        "INENC4.B",
        "INENC1.Z",
        "INENC2.Z",
        "INENC3.Z",
        "INENC4.Z",
        "INENC1.DATA",
        "INENC2.DATA",
        "INENC3.DATA",
        "INENC4.DATA",
        "INENC1.CONN",
        "INENC2.CONN",
        "INENC3.CONN",
        "INENC4.CONN",
        "OUTENC1.CLK",
        "OUTENC2.CLK",
        "OUTENC3.CLK",
        "OUTENC4.CLK",
        "PCAP.ACTIVE",
        "BITS1.OUTA",
        "BITS2.OUTA",
        "BITS1.OUTB",
        "BITS2.OUTB",
        "BITS1.OUTC",
        "BITS2.OUTC",
        "BITS1.OUTD",
        "BITS2.OUTD",
        "CLOCK1.OUT",
        "CLOCK2.OUT",
        "COUNTER1.CARRY",
        "COUNTER2.CARRY",
        "COUNTER3.CARRY",
        "COUNTER4.CARRY",
        "COUNTER5.CARRY",
        "COUNTER6.CARRY",
        "COUNTER7.CARRY",
        "COUNTER8.CARRY",
        "DIV1.OUTD",
        "DIV2.OUTD",
        "DIV1.OUTN",
        "DIV2.OUTN",
        "FILTER1.READY",
        "FILTER2.READY",
        "LUT1.OUT",
        "LUT2.OUT",
        "LUT3.OUT",
        "LUT4.OUT",
        "LUT5.OUT",
        "LUT6.OUT",
        "LUT7.OUT",
        "LUT8.OUT",
        "PCOMP1.ACTIVE",
        "PCOMP2.ACTIVE",
        "PCOMP1.OUT",
        "PCOMP2.OUT",
        "PGEN1.ACTIVE",
        "PGEN2.ACTIVE",
        "PULSE1.OUT",
        "PULSE2.OUT",
        "PULSE3.OUT",
        "PULSE4.OUT",
        "PULSE5.OUT",
        "PULSE6.OUT",
        "PULSE7.OUT",
        "PULSE8.OUT",
        "PULSE9.OUT",
        "PULSE10.OUT",
        "SEQ1.ACTIVE",
        "SEQ2.ACTIVE",
        "SEQ1.OUTA",
        "SEQ2.OUTA",
        "SEQ1.OUTB",
        "SEQ2.OUTB",
        "SEQ1.OUTC",
        "SEQ2.OUTC",
        "SEQ1.OUTD",
        "SEQ2.OUTD",
        "SEQ1.OUTE",
        "SEQ2.OUTE",
        "SEQ1.OUTF",
        "SEQ2.OUTF",
        "SRGATE1.OUT",
        "SRGATE2.OUT",
        "SRGATE3.OUT",
        "SRGATE4.OUT",
        "FMC_IN.TTL"
      ],
      "value": [
        true,
        false,
        false,
        false,
        false,
        false,
        true,
        true,
        true,
        true,
        true,
        true,
        true,
        true,
        false,
        true,
        true,
        true,
        true,
        true,
        true,
        true,
        true,
        true,
        false,
        false,
        false,
        true,
        false,
        false,
        true,
        true,
        false,
        true,
        false,
        true,
        false,
        false,
        false,
        false,
        false,
        false,
        false,
        false,
        false,
        false,
        false,
        false,
        false,
        false,
        false,
        false,
        false,
        false,
        false,
        false,
        false,
        true,
        false,
        false,
        false,
        true,
        false,
        false,
        false,
        false,
        false,
        false,
        false,
        false,
        false,
        false,
        false,
        false,
        false,
        false,
        false,
        false,
        false,
        false,
        false,
        false,
        false,
        false,
        false,
        false,
        false,
        false,
        false,
        false,
        false,
        false,
        false,
        false,
        false,
        false,
        false,
        false,
        false,
        false
      ],
      "capture": [
        false,
        false,
        false,
        false,
        false,
        false,
        false,
        false,
        false,
        false,
        false,
        false,
        false,
        false,
        false,
        false,
        false,
        false,
        false,
        false,
        false,
        false,
        false,
        false,
        false,
        false,
        false,
        false,
        false,
        false,
        false,
        false,
        false,
        false,
        false,
        false,
        false,
        false,
        false,
        false,
        false,
        false,
        false,
        false,
        false,
        false,
        false,
        false,
        false,
        false,
        false,
        false,
        false,
        false,
        false,
        false,
        false,
        false,
        false,
        false,
        false,
        false,
        false,
        false,
        false,
        false,
        false,
        false,
        false,
        false,
        false,
        false,
        false,
        false,
        false,
        false,
        false,
        false,
        false,
        false,
        false,
        false,
        false,
        false,
        false,
        false,
        false,
        false,
        false,
        false,
        false,
        false,
        false,
        false,
        false,
        false,
        false,
        false,
        false,
        false
      ]
    },
    "positions": {
      "typeid": "malcolm:core/Table:1.0",
      "name": [
        "CALC1.OUT",
        "CALC2.OUT",
        "COUNTER1.OUT",
        "COUNTER2.OUT",
        "COUNTER3.OUT",
        "COUNTER4.OUT",
        "COUNTER5.OUT",
        "COUNTER6.OUT",
        "COUNTER7.OUT",
        "COUNTER8.OUT",
        "FILTER1.OUT",
        "FILTER2.OUT",
        "FMC_IN.VAL1",
        "FMC_IN.VAL2",
        "FMC_IN.VAL3",
        "FMC_IN.VAL4",
        "FMC_IN.VAL5",
        "FMC_IN.VAL6",
        "FMC_IN.VAL7",
        "FMC_IN.VAL8",
        "INENC1.VAL",
        "INENC2.VAL",
        "INENC3.VAL",
        "INENC4.VAL",
        "PGEN1.OUT",
        "PGEN2.OUT",
        "PID.OUT",
        "SINGEN.OUT"
      ],
      "value": [
        0.0,
        0.0,
        1.0,
        0.0,
        0.0,
        0.0,
        0.0,
        0.0,
        0.0,
        0.0,
        0.0,
        0.0,
        -0.00061035156209664,
        -0.00251770019364864,
        -0.01159667967983616,
        0.007553100580945921,
        7.629394526208e-05,
        -0.00053405761683456,
        0.01579284666925056,
        -0.014495849599795201,
        0.0,
        0.0,
        100993099.0,
        100993528.0,
        0.0,
        0.0,
        0.0,
        0.0
      ],
      "units": [
        "",
        "",
        "ms",
        "",
        "",
        "",
        "",
        "",
        "",
        "",
        "",
        "",
        "V",
        "V",
        "V",
        "V",
        "V",
        "V",
        "V",
        "V",
        "",
        "",
        "",
        "",
        "",
        "",
        "FS1",
        "FS1"
      ],
      "scale": [
        1.0,
        1.0,
        1.0,
        1.0,
        1.0,
        1.0,
        1.0,
        1.0,
        1.0,
        1.0,
        1.0,
        1.0,
        4.65661287e-09,
        4.65661287e-09,
        4.65661287e-09,
        4.65661287e-09,
        4.65661287e-09,
        4.65661287e-09,
        4.65661287e-09,
        4.65661287e-09,
        1.0,
        1.0,
        1.0,
        1.0,
        1.0,
        1.0,
        4.656612873e-10,
        4.656612873e-10
      ],
      "offset": [
        0.0,
        0.0,
        0.0,
        0.0,
        0.0,
        0.0,
        0.0,
        0.0,
        0.0,
        0.0,
        0.0,
        0.0,
        0.0,
        0.0,
        0.0,
        0.0,
        0.0,
        0.0,
        0.0,
        0.0,
        0.0,
        0.0,
        0.0,
        0.0,
        0.0,
        0.0,
        0.0,
        0.0
      ],
      "capture": [
        "No",
        "No",
        "Value",
        "No",
        "No",
        "No",
        "No",
        "No",
        "No",
        "No",
        "No",
        "No",
        "No",
        "No",
        "No",
        "No",
        "No",
        "No",
        "No",
        "No",
        "No",
        "No",
        "Min Max",
        "No",
        "No",
        "No",
        "No",
        "No"
      ]
    }
  },
  "children": {
    "BITS1": {
      "label": "Soft inputs and constant bits 1",
      "parameters": "expanded",
      "a": true,
      "b": true,
      "c": false,
      "d": false,
      "outputs": "expanded"
    },
    "BITS2": {
      "label": "Soft inputs and constant bits 2",
      "parameters": "expanded",
      "a": false,
      "b": false,
      "c": false,
      "d": false,
      "outputs": "expanded"
    },
    "CALC1": {
      "label": "Position calc 1",
      "inputs": "expanded",
      "inpa": "ZERO",
      "inpb": "ZERO",
      "inpc": "ZERO",
      "inpd": "ZERO",
      "parameters": "expanded",
      "typea": "Value",
      "typeb": "Value",
      "typec": "Value",
      "typed": "Value",
      "func": "A+B+C+D",
      "shift": 0,
      "outputs": "expanded"
    },
    "CALC2": {
      "label": "Position calc 2",
      "inputs": "expanded",
      "inpa": "ZERO",
      "inpb": "ZERO",
      "inpc": "ZERO",
      "inpd": "ZERO",
      "parameters": "expanded",
      "typea": "Value",
      "typeb": "Value",
      "typec": "Value",
      "typed": "Value",
      "func": "A+B+C+D",
      "shift": 0,
      "outputs": "expanded"
    },
    "CLOCK1": {
      "label": "external_events",
      "inputs": "expanded",
      "enable": "ZERO",
      "enableDelay": 0,
      "parameters": "expanded",
      "period": 0.1,
      "periodUnits": "s",
      "outputs": "expanded"
    },
    "CLOCK2": {
      "label": "electron count",
      "inputs": "expanded",
      "enable": "ZERO",
      "enableDelay": 0,
      "parameters": "expanded",
      "period": 0.1,
      "periodUnits": "s",
      "outputs": "expanded"
    },
    "COUNTER1": {
      "label": "trigger per start",
      "inputs": "expanded",
      "enable": "BITS1.OUTA",
      "enableDelay": 0,
      "trig": "PULSE1.OUT",
      "trigDelay": 0,
      "dir": "ZERO",
      "dirDelay": 0,
      "parameters": "expanded",
      "start": 1,
      "step": 1,
      "max": 10,
      "min": 0,
      "outputs": "expanded"
    },
    "COUNTER2": {
      "label": "total number of triggers",
      "inputs": "expanded",
      "enable": "ZERO",
      "enableDelay": 0,
      "trig": "ZERO",
      "trigDelay": 0,
      "dir": "ZERO",
      "dirDelay": 0,
      "parameters": "expanded",
      "start": 0,
      "step": 1,
      "max": 10000,
      "min": 0,
      "outputs": "expanded"
    },
    "COUNTER3": {
      "label": "Up/Down pulse counter 3",
      "inputs": "expanded",
      "enable": "ZERO",
      "enableDelay": 0,
      "trig": "ZERO",
      "trigDelay": 0,
      "dir": "ZERO",
      "dirDelay": 0,
      "parameters": "expanded",
      "start": 0,
      "step": 1,
      "max": 0,
      "min": 0,
      "outputs": "expanded"
    },
    "COUNTER4": {
      "label": "Up/Down pulse counter 4",
      "inputs": "expanded",
      "enable": "ZERO",
      "enableDelay": 0,
      "trig": "ZERO",
      "trigDelay": 0,
      "dir": "ZERO",
      "dirDelay": 0,
      "parameters": "expanded",
      "start": 0,
      "step": 0,
      "max": 0,
      "min": 0,
      "outputs": "expanded"
    },
    "COUNTER5": {
      "label": "Up/Down pulse counter 5",
      "inputs": "expanded",
      "enable": "ZERO",
      "enableDelay": 0,
      "trig": "ZERO",
      "trigDelay": 0,
      "dir": "ZERO",
      "dirDelay": 0,
      "parameters": "expanded",
      "start": 0,
      "step": 0,
      "max": 0,
      "min": 0,
      "outputs": "expanded"
    },
    "COUNTER6": {
      "label": "Up/Down pulse counter 6",
      "inputs": "expanded",
      "enable": "ZERO",
      "enableDelay": 0,
      "trig": "ZERO",
      "trigDelay": 0,
      "dir": "ZERO",
      "dirDelay": 0,
      "parameters": "expanded",
      "start": 0,
      "step": 0,
      "max": 0,
      "min": 0,
      "outputs": "expanded"
    },
    "COUNTER7": {
      "label": "Up/Down pulse counter 7",
      "inputs": "expanded",
      "enable": "ZERO",
      "enableDelay": 0,
      "trig": "ZERO",
      "trigDelay": 0,
      "dir": "ZERO",
      "dirDelay": 0,
      "parameters": "expanded",
      "start": 0,
      "step": 0,
      "max": 0,
      "min": 0,
      "outputs": "expanded"
    },
    "COUNTER8": {
      "label": "Up/Down pulse counter 8",
      "inputs": "expanded",
      "enable": "ZERO",
      "enableDelay": 0,
      "trig": "ZERO",
      "trigDelay": 0,
      "dir": "ZERO",
      "dirDelay": 0,
      "parameters": "expanded",
      "start": 0,
      "step": 0,
      "max": 0,
      "min": 0,
      "outputs": "expanded"
    },
    "DIV1": {
      "label": "Pulse divider 1",
      "inputs": "expanded",
      "enable": "ZERO",
      "enableDelay": 0,
      "inp": "ZERO",
      "inpDelay": 0,
      "parameters": "expanded",
      "divisor": 0,
      "firstPulse": "OutN",
      "outputs": "expanded",
      "readbacks": "expanded"
    },
    "DIV2": {
      "label": "Pulse divider 2",
      "inputs": "expanded",
      "enable": "ZERO",
      "enableDelay": 0,
      "inp": "ZERO",
      "inpDelay": 0,
      "parameters": "expanded",
      "divisor": 0,
      "firstPulse": "OutN",
      "outputs": "expanded",
      "readbacks": "expanded"
    },
    "FILTER1": {
      "label": "Filter block modes are Difference and Divider 1",
      "inputs": "expanded",
      "enable": "ZERO",
      "enableDelay": 0,
      "trig": "ZERO",
      "trigDelay": 0,
      "inp": "ZERO",
      "parameters": "expanded",
      "mode": "difference",
      "outputs": "expanded"
    },
    "FILTER2": {
      "label": "Filter block modes are Difference and Divider 2",
      "inputs": "expanded",
      "enable": "ZERO",
      "enableDelay": 0,
      "trig": "ZERO",
      "trigDelay": 0,
      "inp": "ZERO",
      "parameters": "expanded",
      "mode": "difference",
      "outputs": "expanded"
    },
    "FMC_IN": {
      "label": "FMC ACQ427 Module",
      "parameters": "expanded",
      "gain1": "10V",
      "gain2": "10V",
      "gain3": "10V",
      "gain4": "10V",
      "gain5": "10V",
      "gain6": "10V",
      "gain7": "10V",
      "gain8": "10V",
      "outputs": "expanded",
      "readbacks": "expanded"
    },
    "FMC_OUT": {
      "label": "FMC ACQ427 Module",
      "inputs": "expanded",
      "val1": "ZERO",
      "val2": "ZERO",
      "val3": "ZERO",
      "val4": "ZERO",
      "parameters": "expanded",
      "gain1": "5V",
      "gain2": "5V",
      "gain3": "5V",
      "gain4": "5V",
      "readbacks": "expanded"
    },
    "INENC1": {
      "label": "Input encoder 1",
      "inputs": "expanded",
      "clk": "ZERO",
      "clkDelay": 0,
      "parameters": "expanded",
      "protocol": "Quadrature",
      "encoding": "Unsigned Binary",
      "clkSrc": "Internally Generated",
      "clkPeriod": 0.008,
      "clkPeriodUnits": "us",
      "framePeriod": 0.008,
      "framePeriodUnits": "us",
      "bits": 32,
      "lsbDiscard": 0,
      "msbDiscard": 0,
      "setp": 0,
      "rstOnZ": false,
      "outputs": "expanded",
      "readbacks": "expanded"
    },
    "INENC2": {
      "label": "Input encoder 2",
      "inputs": "expanded",
      "clk": "ZERO",
      "clkDelay": 0,
      "parameters": "expanded",
      "protocol": "Quadrature",
      "encoding": "Unsigned Binary",
      "clkSrc": "Internally Generated",
      "clkPeriod": 0.008,
      "clkPeriodUnits": "us",
      "framePeriod": 0.008,
      "framePeriodUnits": "us",
      "bits": 32,
      "lsbDiscard": 0,
      "msbDiscard": 0,
      "setp": 0,
      "rstOnZ": false,
      "outputs": "expanded",
      "readbacks": "expanded"
    },
    "INENC3": {
      "label": "Input encoder 3",
      "inputs": "expanded",
      "clk": "ZERO",
      "clkDelay": 0,
      "parameters": "expanded",
      "protocol": "BISS",
      "encoding": "Signed Binary",
      "clkSrc": "Internally Generated",
      "clkPeriod": 1.0,
      "clkPeriodUnits": "us",
      "framePeriod": 37.0,
      "framePeriodUnits": "us",
      "bits": 32,
      "lsbDiscard": 0,
      "msbDiscard": 0,
      "setp": 0,
      "rstOnZ": false,
      "outputs": "expanded",
      "readbacks": "expanded"
    },
    "INENC4": {
      "label": "Input encoder 4",
      "inputs": "expanded",
      "clk": "ZERO",
      "clkDelay": 0,
      "parameters": "expanded",
      "protocol": "BISS",
      "encoding": "Signed Binary",
      "clkSrc": "Internally Generated",
      "clkPeriod": 1.0,
      "clkPeriodUnits": "us",
      "framePeriod": 100.0,
      "framePeriodUnits": "us",
      "bits": 32,
      "lsbDiscard": 0,
      "msbDiscard": 0,
      "setp": 0,
      "rstOnZ": false,
      "outputs": "expanded",
      "readbacks": "expanded"
    },
    "LUT1": {
      "label": "inverter",
      "inputs": "expanded",
      "inpa": "ZERO",
      "inpaDelay": 0,
      "inpb": "ZERO",
      "inpbDelay": 0,
      "inpc": "ZERO",
      "inpcDelay": 0,
      "inpd": "ZERO",
      "inpdDelay": 0,
      "inpe": "ZERO",
      "inpeDelay": 0,
      "parameters": "expanded",
      "typea": "Input-Level",
      "typeb": "Input-Level",
      "typec": "Input-Level",
      "typed": "Input-Level",
      "typee": "Input-Level",
      "func": "~A",
      "outputs": "expanded"
    },
    "LUT2": {
      "label": "Lookup table 2",
      "inputs": "expanded",
      "inpa": "ZERO",
      "inpaDelay": 0,
      "inpb": "ZERO",
      "inpbDelay": 0,
      "inpc": "ZERO",
      "inpcDelay": 0,
      "inpd": "ZERO",
      "inpdDelay": 0,
      "inpe": "ZERO",
      "inpeDelay": 0,
      "parameters": "expanded",
      "typea": "Input-Level",
      "typeb": "Input-Level",
      "typec": "Input-Level",
      "typed": "Input-Level",
      "typee": "Input-Level",
      "func": "A|B",
      "outputs": "expanded"
    },
    "LUT3": {
      "label": "Lookup table 3",
      "inputs": "expanded",
      "inpa": "ZERO",
      "inpaDelay": 0,
      "inpb": "ZERO",
      "inpbDelay": 0,
      "inpc": "ZERO",
      "inpcDelay": 0,
      "inpd": "ZERO",
      "inpdDelay": 0,
      "inpe": "ZERO",
      "inpeDelay": 0,
      "parameters": "expanded",
      "typea": "Input-Level",
      "typeb": "Input-Level",
      "typec": "Input-Level",
      "typed": "Input-Level",
      "typee": "Input-Level",
      "func": "(A&~D)|(B&D)",
      "outputs": "expanded"
    },
    "LUT4": {
      "label": "Lookup table 4",
      "inputs": "expanded",
      "inpa": "ZERO",
      "inpaDelay": 0,
      "inpb": "ZERO",
      "inpbDelay": 0,
      "inpc": "ZERO",
      "inpcDelay": 0,
      "inpd": "ZERO",
      "inpdDelay": 0,
      "inpe": "ZERO",
      "inpeDelay": 0,
      "parameters": "expanded",
      "typea": "Input-Level",
      "typeb": "Input-Level",
      "typec": "Input-Level",
      "typed": "Input-Level",
      "typee": "Input-Level",
      "func": "B",
      "outputs": "expanded"
    },
    "LUT5": {
      "label": "Lookup table 5",
      "inputs": "expanded",
      "inpa": "ZERO",
      "inpaDelay": 0,
      "inpb": "ZERO",
      "inpbDelay": 0,
      "inpc": "ZERO",
      "inpcDelay": 0,
      "inpd": "ZERO",
      "inpdDelay": 0,
      "inpe": "ZERO",
      "inpeDelay": 0,
      "parameters": "expanded",
      "typea": "Input-Level",
      "typeb": "Input-Level",
      "typec": "Input-Level",
      "typed": "Input-Level",
      "typee": "Input-Level",
      "func": "~A",
      "outputs": "expanded"
    },
    "LUT6": {
      "label": "Lookup table 6",
      "inputs": "expanded",
      "inpa": "ZERO",
      "inpaDelay": 0,
      "inpb": "ZERO",
      "inpbDelay": 0,
      "inpc": "ZERO",
      "inpcDelay": 0,
      "inpd": "ZERO",
      "inpdDelay": 0,
      "inpe": "ZERO",
      "inpeDelay": 0,
      "parameters": "expanded",
      "typea": "Input-Level",
      "typeb": "Input-Level",
      "typec": "Input-Level",
      "typed": "Input-Level",
      "typee": "Input-Level",
      "func": "0x00000000",
      "outputs": "expanded"
    },
    "LUT7": {
      "label": "Lookup table 7",
      "inputs": "expanded",
      "inpa": "ZERO",
      "inpaDelay": 0,
      "inpb": "ZERO",
      "inpbDelay": 0,
      "inpc": "ZERO",
      "inpcDelay": 0,
      "inpd": "ZERO",
      "inpdDelay": 0,
      "inpe": "ZERO",
      "inpeDelay": 0,
      "parameters": "expanded",
      "typea": "Input-Level",
      "typeb": "Input-Level",
      "typec": "Input-Level",
      "typed": "Input-Level",
      "typee": "Input-Level",
      "func": "0x00000000",
      "outputs": "expanded"
    },
    "LUT8": {
      "label": "Lookup table 8",
      "inputs": "expanded",
      "inpa": "ZERO",
      "inpaDelay": 0,
      "inpb": "ZERO",
      "inpbDelay": 0,
      "inpc": "ZERO",
      "inpcDelay": 0,
      "inpd": "ZERO",
      "inpdDelay": 0,
      "inpe": "ZERO",
      "inpeDelay": 0,
      "parameters": "expanded",
      "typea": "Input-Level",
      "typeb": "Input-Level",
      "typec": "Input-Level",
      "typed": "Input-Level",
      "typee": "Input-Level",
      "func": "0x00000000",
      "outputs": "expanded"
    },
    "LVDSIN1": {
      "label": "LVDS input 1",
      "outputs": "expanded"
    },
    "LVDSIN2": {
      "label": "LVDS input 2",
      "outputs": "expanded"
    },
    "LVDSOUT1": {
      "label": "LVDS output 1",
      "inputs": "expanded",
      "val": "ZERO",
      "valDelay": 0
    },
    "LVDSOUT2": {
      "label": "LVDS output 2",
      "inputs": "expanded",
      "val": "ZERO",
      "valDelay": 0
    },
    "OUTENC1": {
      "label": "Output encoder 1",
      "inputs": "expanded",
      "enable": "ZERO",
      "enableDelay": 0,
      "parameters": "expanded",
      "generatorError": "No",
      "a": "ZERO",
      "aDelay": 0,
      "b": "ZERO",
      "bDelay": 0,
      "z": "ZERO",
      "zDelay": 0,
      "data": "ZERO",
      "dataDelay": 0,
      "protocol": "Quadrature",
      "encoding": "Unsigned Binary",
      "bits": 0,
      "qperiod": 0.0,
      "qperiodUnits": "s",
      "outputs": "expanded",
      "val": "ZERO",
      "readbacks": "expanded"
    },
    "OUTENC2": {
      "label": "Output encoder 2",
      "inputs": "expanded",
      "enable": "ZERO",
      "enableDelay": 0,
      "parameters": "expanded",
      "generatorError": "No",
      "a": "ZERO",
      "aDelay": 0,
      "b": "ZERO",
      "bDelay": 0,
      "z": "ZERO",
      "zDelay": 0,
      "data": "ZERO",
      "dataDelay": 0,
      "protocol": "Quadrature",
      "encoding": "Unsigned Binary",
      "bits": 0,
      "qperiod": 0.0,
      "qperiodUnits": "s",
      "outputs": "expanded",
      "val": "ZERO",
      "readbacks": "expanded"
    },
    "OUTENC3": {
      "label": "Output encoder 3",
      "inputs": "expanded",
      "enable": "ZERO",
      "enableDelay": 0,
      "parameters": "expanded",
      "generatorError": "BISS frame error bit",
      "a": "ZERO",
      "aDelay": 0,
      "b": "ZERO",
      "bDelay": 0,
      "z": "ZERO",
      "zDelay": 0,
      "data": "ZERO",
      "dataDelay": 0,
      "protocol": "BISS",
      "encoding": "Signed Binary",
      "bits": 32,
      "qperiod": 0.0,
      "qperiodUnits": "s",
      "outputs": "expanded",
      "val": "ZERO",
      "readbacks": "expanded"
    },
    "OUTENC4": {
      "label": "Output encoder 4",
      "inputs": "expanded",
      "enable": "ZERO",
      "enableDelay": 0,
      "parameters": "expanded",
      "generatorError": "No",
      "a": "ZERO",
      "aDelay": 0,
      "b": "ZERO",
      "bDelay": 0,
      "z": "ZERO",
      "zDelay": 0,
      "data": "ZERO",
      "dataDelay": 0,
      "protocol": "ABZ Passthrough",
      "encoding": "Signed Binary",
      "bits": 32,
      "qperiod": 1.0,
      "qperiodUnits": "us",
      "outputs": "expanded",
      "val": "ZERO",
      "readbacks": "expanded"
    },
    "PCAP": {
      "label": "Position capture control",
      "inputs": "expanded",
      "enable": "ONE",
      "enableDelay": 0,
      "gate": "PULSE1.OUT",
      "gateDelay": 1,
      "trig": "PULSE1.OUT",
      "trigDelay": 1,
      "parameters": "expanded",
      "trigEdge": "Falling",
      "shiftSum": 0,
      "outputs": "expanded",
      "tsStartCapture": "No",
      "tsEndCapture": "No",
      "tsTrigCapture": "No",
      "samplesCapture": "No"
    },
    "PCOMP1": {
      "label": "Position compare 1",
      "inputs": "expanded",
      "enable": "ZERO",
      "enableDelay": 0,
      "inp": "ZERO",
      "parameters": "expanded",
      "preStart": 0,
      "start": -7,
      "width": 1,
      "step": 0,
      "pulses": 0,
      "relative": "Absolute",
      "dir": "Positive",
      "outputs": "expanded",
      "readbacks": "expanded"
    },
    "PCOMP2": {
      "label": "Position compare 2",
      "inputs": "expanded",
      "enable": "ZERO",
      "enableDelay": 0,
      "inp": "ZERO",
      "parameters": "expanded",
      "preStart": -387076,
      "start": -387086,
      "width": 1,
      "step": 2,
      "pulses": 1,
      "relative": "Absolute",
      "dir": "Negative",
      "outputs": "expanded",
      "readbacks": "expanded"
    },
    "PGEN1": {
      "label": "Position generator 1",
      "inputs": "expanded",
      "enable": "ZERO",
      "enableDelay": 0,
      "trig": "ZERO",
      "trigDelay": 0,
      "parameters": "expanded",
      "table": {
        "typeid": "malcolm:core/Table:1.0",
        "position": [
          0,
          -1,
          -2,
          -3,
          -4,
          -5,
          -6,
          0,
          -8,
          -9,
          -10,
          -9,
          -8,
          -7,
          -6,
          -5,
          -4,
          -3,
          -2,
          -1,
          0
        ]
      },
      "repeats": 0,
      "outputs": "expanded"
    },
    "PGEN2": {
      "label": "Position generator 2",
      "inputs": "expanded",
      "enable": "ZERO",
      "enableDelay": 0,
      "trig": "ZERO",
      "trigDelay": 0,
      "parameters": "expanded",
      "table": {
        "typeid": "malcolm:core/Table:1.0",
        "position": []
      },
      "repeats": 0,
      "outputs": "expanded"
    },
    "PID": {
      "label": "PID Controller",
      "inputs": "expanded",
      "enable": "ZERO",
      "enableDelay": 0,
      "parameters": "expanded",
      "kp": 0.0,
      "ki": 0.0,
      "kd": 0.0,
      "fFilter": 0.0,
      "cmd": "ZERO",
      "meas": "ZERO",
      "outputs": "expanded",
      "thresh": 0.0,
      "maxOut": 0.0,
      "antiIntWndpRatG": 0.0,
      "invCmd": false,
      "invMeas": false,
      "derivOnProcvar": false,
      "reservedGp": 0,
      "reservedGi": 0,
      "reservedG1D": 1065269539,
      "reservedG2D": 0
    },
    "PULSE1": {
      "label": "pulse train to detectors",
      "inputs": "expanded",
      "enable": "BITS1.OUTA",
      "enableDelay": 0,
      "trig": "TTLIN1.VAL",
      "trigDelay": 0,
      "parameters": "expanded",
      "delay": 0.0,
      "delayUnits": "s",
      "width": 1.0,
      "widthUnits": "s",
      "pulses": 11,
      "step": 2.0,
      "stepUnits": "s",
      "trigEdge": "Falling",
      "outputs": "expanded",
      "readbacks": "expanded"
    },
    "PULSE2": {
      "label": "trigger for detectors",
      "inputs": "expanded",
      "enable": "ZERO",
      "enableDelay": 0,
      "trig": "ZERO",
      "trigDelay": 0,
      "parameters": "expanded",
      "delay": 0.0,
      "delayUnits": "s",
      "width": 0.5,
      "widthUnits": "s",
      "pulses": 1,
      "step": 1.0,
      "stepUnits": "s",
      "trigEdge": "Rising",
      "outputs": "expanded",
      "readbacks": "expanded"
    },
    "PULSE3": {
      "label": "One-shot pulse delay and stretch 3",
      "inputs": "expanded",
      "enable": "ZERO",
      "enableDelay": 0,
      "trig": "ZERO",
      "trigDelay": 0,
      "parameters": "expanded",
      "delay": 0.0,
      "delayUnits": "s",
      "width": 0.1,
      "widthUnits": "s",
      "pulses": 4294967295,
      "step": 1.0,
      "stepUnits": "s",
      "trigEdge": "Rising",
      "outputs": "expanded",
      "readbacks": "expanded"
    },
    "PULSE4": {
      "label": "One-shot pulse delay and stretch 4",
      "inputs": "expanded",
      "enable": "ZERO",
      "enableDelay": 0,
      "trig": "ZERO",
      "trigDelay": 0,
      "parameters": "expanded",
      "delay": 5.0,
      "delayUnits": "s",
      "width": 0.0,
      "widthUnits": "s",
      "pulses": 0,
      "step": 0.0,
      "stepUnits": "s",
      "trigEdge": "Rising",
      "outputs": "expanded",
      "readbacks": "expanded"
    },
    "PULSE5": {
      "label": "One-shot pulse delay and stretch 5",
      "inputs": "expanded",
      "enable": "ZERO",
      "enableDelay": 0,
      "trig": "ZERO",
      "trigDelay": 0,
      "parameters": "expanded",
      "delay": 0.0,
      "delayUnits": "s",
      "width": 0.0,
      "widthUnits": "s",
      "pulses": 0,
      "step": 0.0,
      "stepUnits": "s",
      "trigEdge": "Rising",
      "outputs": "expanded",
      "readbacks": "expanded"
    },
    "PULSE6": {
      "label": "One-shot pulse delay and stretch 6",
      "inputs": "expanded",
      "enable": "ZERO",
      "enableDelay": 0,
      "trig": "ZERO",
      "trigDelay": 0,
      "parameters": "expanded",
      "delay": 0.0,
      "delayUnits": "s",
      "width": 0.0,
      "widthUnits": "s",
      "pulses": 0,
      "step": 0.0,
      "stepUnits": "s",
      "trigEdge": "Rising",
      "outputs": "expanded",
      "readbacks": "expanded"
    },
    "PULSE7": {
      "label": "One-shot pulse delay and stretch 7",
      "inputs": "expanded",
      "enable": "ZERO",
      "enableDelay": 0,
      "trig": "ZERO",
      "trigDelay": 0,
      "parameters": "expanded",
      "delay": 0.0,
      "delayUnits": "s",
      "width": 0.0,
      "widthUnits": "s",
      "pulses": 0,
      "step": 0.0,
      "stepUnits": "s",
      "trigEdge": "Rising",
      "outputs": "expanded",
      "readbacks": "expanded"
    },
    "PULSE8": {
      "label": "One-shot pulse delay and stretch 8",
      "inputs": "expanded",
      "enable": "ZERO",
      "enableDelay": 0,
      "trig": "ZERO",
      "trigDelay": 0,
      "parameters": "expanded",
      "delay": 0.0,
      "delayUnits": "s",
      "width": 0.0,
      "widthUnits": "s",
      "pulses": 0,
      "step": 0.0,
      "stepUnits": "s",
      "trigEdge": "Rising",
      "outputs": "expanded",
      "readbacks": "expanded"
    },
    "PULSE9": {
      "label": "One-shot pulse delay and stretch 9",
      "inputs": "expanded",
      "enable": "ZERO",
      "enableDelay": 0,
      "trig": "ZERO",
      "trigDelay": 0,
      "parameters": "expanded",
      "delay": 0.0,
      "delayUnits": "s",
      "width": 0.0,
      "widthUnits": "s",
      "pulses": 0,
      "step": 0.0,
      "stepUnits": "s",
      "trigEdge": "Rising",
      "outputs": "expanded",
      "readbacks": "expanded"
    },
    "PULSE10": {
      "label": "One-shot pulse delay and stretch 10",
      "inputs": "expanded",
      "enable": "ZERO",
      "enableDelay": 0,
      "trig": "ZERO",
      "trigDelay": 0,
      "parameters": "expanded",
      "delay": 0.0,
      "delayUnits": "s",
      "width": 0.0,
      "widthUnits": "s",
      "pulses": 0,
      "step": 0.0,
      "stepUnits": "s",
      "trigEdge": "Rising",
      "outputs": "expanded",
      "readbacks": "expanded"
    },
    "SEQ1": {
      "label": "Sequencer 1",
      "inputs": "expanded",
      "enable": "ZERO",
      "enableDelay": 0,
      "bita": "ZERO",
      "bitaDelay": 0,
      "bitb": "ZERO",
      "bitbDelay": 0,
      "bitc": "ZERO",
      "bitcDelay": 0,
      "posa": "ZERO",
      "posb": "ZERO",
      "posc": "ZERO",
      "parameters": "expanded",
      "table": {
        "typeid": "malcolm:core/Table:1.0",
        "repeats": [
          1,
          1,
          1
        ],
        "trigger": [
          "Immediate",
          "POSA>=POSITION",
          "POSA<=POSITION"
        ],
        "position": [
          0,
          4,
          3
        ],
        "time1": [
          0,
          0,
          0
        ],
        "outa1": [
          false,
          false,
          false
        ],
        "outb1": [
          false,
          false,
          false
        ],
        "outc1": [
          false,
          false,
          false
        ],
        "outd1": [
          false,
          false,
          false
        ],
        "oute1": [
          false,
          false,
          false
        ],
        "outf1": [
          false,
          false,
          false
        ],
        "time2": [
          0,
          0,
          0
        ],
        "outa2": [
          true,
          false,
          false
        ],
        "outb2": [
          false,
          false,
          false
        ],
        "outc2": [
          false,
          false,
          false
        ],
        "outd2": [
          false,
          false,
          false
        ],
        "oute2": [
          false,
          false,
          false
        ],
        "outf2": [
          false,
          false,
          false
        ]
      },
      "prescale": 1.0,
      "prescaleUnits": "s",
      "repeats": 1,
      "outputs": "expanded",
      "readbacks": "expanded"
    },
    "SEQ2": {
      "label": "Sequencer 2",
      "inputs": "expanded",
      "enable": "ZERO",
      "enableDelay": 0,
      "bita": "ZERO",
      "bitaDelay": 0,
      "bitb": "ZERO",
      "bitbDelay": 0,
      "bitc": "ZERO",
      "bitcDelay": 0,
      "posa": "ZERO",
      "posb": "ZERO",
      "posc": "ZERO",
      "parameters": "expanded",
      "table": {
        "typeid": "malcolm:core/Table:1.0",
        "repeats": [
          1,
          1,
          1
        ],
        "trigger": [
          "Immediate",
          "BITA=1",
          "BITA=0"
        ],
        "position": [
          0,
          0,
          0
        ],
        "time1": [
          0,
          0,
          0
        ],
        "outa1": [
          false,
          false,
          false
        ],
        "outb1": [
          false,
          false,
          false
        ],
        "outc1": [
          false,
          false,
          false
        ],
        "outd1": [
          false,
          false,
          false
        ],
        "oute1": [
          false,
          false,
          false
        ],
        "outf1": [
          false,
          false,
          false
        ],
        "time2": [
          0,
          0,
          1500
        ],
        "outa2": [
          true,
          true,
          false
        ],
        "outb2": [
          false,
          false,
          false
        ],
        "outc2": [
          false,
          false,
          false
        ],
        "outd2": [
          false,
          false,
          false
        ],
        "oute2": [
          false,
          false,
          false
        ],
        "outf2": [
          false,
          false,
          false
        ]
      },
      "prescale": 1.0,
      "prescaleUnits": "ms",
      "repeats": 2,
      "outputs": "expanded",
      "readbacks": "expanded"
    },
    "SINGEN": {
      "label": "Sine wave generator",
      "inputs": "expanded",
      "enable": "ZERO",
      "enableDelay": 0,
      "parameters": "expanded",
      "amplitude": 1.0,
      "frequency": 0.9997747838,
      "outputs": "expanded"
    },
    "SRGATE1": {
      "label": "Set reset gate 1",
      "inputs": "expanded",
      "enable": "BITS1.OUTA",
      "enableDelay": 0,
      "set": "BITS1.OUTB",
      "setDelay": 0,
      "rst": "COUNTER1.CARRY",
      "rstDelay": 0,
      "parameters": "expanded",
      "whenDisabled": "Set output low",
      "setEdge": "Rising",
      "rstEdge": "Falling",
      "outputs": "expanded"
    },
    "SRGATE2": {
      "label": "Set reset gate 2",
      "inputs": "expanded",
      "enable": "ZERO",
      "enableDelay": 0,
      "set": "ZERO",
      "setDelay": 0,
      "rst": "ZERO",
      "rstDelay": 0,
      "parameters": "expanded",
      "whenDisabled": "Set output low",
      "setEdge": "Rising",
      "rstEdge": "Rising",
      "outputs": "expanded"
    },
    "SRGATE3": {
      "label": "Set reset gate 3",
      "inputs": "expanded",
      "enable": "ZERO",
      "enableDelay": 0,
      "set": "ZERO",
      "setDelay": 0,
      "rst": "ZERO",
      "rstDelay": 0,
      "parameters": "expanded",
      "whenDisabled": "Set output low",
      "setEdge": "Rising",
      "rstEdge": "Rising",
      "outputs": "expanded"
    },
    "SRGATE4": {
      "label": "Set reset gate 4",
      "inputs": "expanded",
      "enable": "ZERO",
      "enableDelay": 0,
      "set": "ZERO",
      "setDelay": 0,
      "rst": "ZERO",
      "rstDelay": 0,
      "parameters": "expanded",
      "whenDisabled": "Set output low",
      "setEdge": "Rising",
      "rstEdge": "Rising",
      "outputs": "expanded"
    },
    "SYSTEM": {
      "label": "System control FPGA",
      "readbacks": "expanded",
      "parameters": "expanded",
      "extClock": "int clock"
    },
    "TTLIN1": {
      "label": "TTL input 1",
      "parameters": "expanded",
      "term": "High-Z",
      "outputs": "expanded"
    },
    "TTLIN2": {
      "label": "TTL input 2",
      "parameters": "expanded",
      "term": "High-Z",
      "outputs": "expanded"
    },
    "TTLIN3": {
      "label": "TTL input 3",
      "parameters": "expanded",
      "term": "High-Z",
      "outputs": "expanded"
    },
    "TTLIN4": {
      "label": "TTL input 4",
      "parameters": "expanded",
      "term": "High-Z",
      "outputs": "expanded"
    },
    "TTLIN5": {
      "label": "TTL input 5",
      "parameters": "expanded",
      "term": "High-Z",
      "outputs": "expanded"
    },
    "TTLIN6": {
      "label": "TTL input 6",
      "parameters": "expanded",
      "term": "High-Z",
      "outputs": "expanded"
    },
    "TTLOUT1": {
      "label": "TTL output 1",
      "inputs": "expanded",
      "val": "ZERO",
      "valDelay": 0
    },
    "TTLOUT2": {
      "label": "TTL output 2",
      "inputs": "expanded",
      "val": "PULSE1.OUT",
      "valDelay": 0
    },
    "TTLOUT3": {
      "label": "TTL output 3",
      "inputs": "expanded",
      "val": "ZERO",
      "valDelay": 0
    },
    "TTLOUT4": {
      "label": "TTL output 4",
      "inputs": "expanded",
      "val": "ZERO",
      "valDelay": 0
    },
    "TTLOUT5": {
      "label": "TTL output 5",
      "inputs": "expanded",
      "val": "PULSE1.OUT",
      "valDelay": 0
    },
    "TTLOUT6": {
      "label": "TTL output 6",
      "inputs": "expanded",
      "val": "SRGATE1.OUT",
      "valDelay": 0
    },
    "TTLOUT7": {
      "label": "TTL output 7",
      "inputs": "expanded",
      "val": "ZERO",
      "valDelay": 0
    },
    "TTLOUT8": {
      "label": "TTL output 8",
      "inputs": "expanded",
      "val": "ZERO",
      "valDelay": 0
    },
    "TTLOUT9": {
      "label": "TTL output 9",
      "inputs": "expanded",
      "val": "ZERO",
      "valDelay": 0
    },
    "TTLOUT10": {
      "label": "TTL output 10",
      "inputs": "expanded",
      "val": "ZERO",
      "valDelay": 0
    }
  }
}